[{
  "id":1  ,
  "fecha": "4/11/2020",
  "importe":95,
  "latitud": -68.713485,
  "longitud": 111.639243,
  "Ciudad" : "A"
},{
  "id":2  ,
  "fecha": "20/11/2020",
  "importe":9111,
  "latitud": -68.713485,
  "longitud": 111.639243,
  "Ciudad" : "B"
},{
  "id":3  ,
  "fecha": "14/11/2020",
  "importe":95,
  "latitud": -68713485,
  "longitud": 111.639243,
  "Ciudad" : "C"
},{
  "id":4  ,
  "fecha": "4/12/2020",
  "importe":95,
  "latitud": -68713485,
  "longitud": 111.639243,
  "Ciudad" : "D"
},{
  "id":5  ,
  "fecha": "4/11/2021",
  "importe":95,
  "latitud": -68713485,
  "longitud": 111.639243,
  "Ciudad" : "E"
}]
